refV = 3925
0,  33.19,  3270.06,  3868.50,  341.56 
1,  44.25,  3270.88,  3870.50,  342.06 
2,  82.44,  3273.31,  3872.31,  342.25 
3,  121.62,  3270.19,  3871.81,  343.00 
4,  158.06,  3272.50,  3872.44,  341.56 
5,  200.88,  3272.81,  3871.44,  342.44 
6,  239.75,  3274.62,  3872.81,  342.31 
7,  278.56,  3274.56,  3872.12,  343.00 
8,  318.69,  3273.62,  3872.75,  342.19 
9,  357.75,  3275.25,  3873.81,  342.50 
10,  398.12,  3277.38,  3872.25,  342.50 
11,  437.44,  3281.81,  3874.56,  342.75 
12,  477.06,  3282.25,  3873.94,  342.75 
13,  515.25,  3280.94,  3873.25,  341.88 
14,  553.31,  3281.25,  3874.56,  343.12 
15,  592.81,  3281.62,  3873.69,  342.25 
16,  631.06,  3281.56,  3874.12,  343.25 
17,  670.12,  3282.31,  3875.44,  340.75 
18,  709.62,  3282.94,  3874.00,  342.00 
19,  751.12,  3284.56,  3873.81,  343.12 
20,  790.06,  3285.19,  3874.19,  342.38 
21,  830.50,  3284.31,  3873.81,  343.50 
22,  868.56,  3286.19,  3874.69,  343.38 
23,  905.44,  3286.44,  3874.06,  342.62 
24,  941.31,  3286.69,  3874.44,  342.88 
25,  982.31,  3288.31,  3874.38,  342.12 
26,  1025.81,  3289.06,  3875.44,  342.50 
27,  1063.75,  3289.56,  3873.94,  342.00 
28,  1104.56,  3290.62,  3870.44,  342.62 
29,  1144.12,  3290.00,  3868.62,  343.25 
30,  1184.00,  3291.38,  3877.69,  342.62 
31,  1224.31,  3292.88,  3878.00,  342.25 
32,  1263.69,  3293.81,  3877.19,  342.88 
33,  1300.31,  3293.81,  3877.06,  343.00 
34,  1336.50,  3294.12,  3876.88,  343.00 
35,  1375.06,  3294.94,  3877.50,  342.00 
36,  1419.69,  3296.69,  3876.50,  342.25 
37,  1457.56,  3296.62,  3876.69,  342.62 
38,  1496.88,  3297.69,  3875.81,  342.62 
39,  1537.69,  3298.38,  3874.69,  342.75 
40,  1578.19,  3299.06,  3877.94,  343.12 
41,  1618.44,  3299.50,  3877.50,  342.75 
42,  1657.19,  3299.69,  3877.75,  342.88 
43,  1692.94,  3302.00,  3878.12,  341.38 
44,  1730.31,  3304.50,  3877.50,  342.88 
45,  1769.81,  3304.44,  3878.94,  342.75 
46,  1806.94,  3302.62,  3878.38,  342.12 
47,  1846.81,  3303.25,  3878.75,  342.50 
48,  1889.50,  3307.44,  3877.50,  342.75 
49,  1930.75,  3307.88,  3878.19,  342.88 
50,  1971.50,  3307.62,  3877.88,  342.38 
51,  2012.06,  3309.19,  3879.00,  342.50 
52,  2051.44,  3309.81,  3878.94,  342.38 
53,  2088.00,  3317.06,  3880.19,  343.00 
54,  2125.44,  3318.81,  3878.94,  342.75 
55,  2163.19,  3317.19,  3879.06,  342.00 
56,  2201.50,  3317.00,  3879.44,  342.75 
57,  2241.50,  3316.75,  3878.19,  342.38 
58,  2284.25,  3317.75,  3877.19,  342.75 
59,  2324.56,  3319.19,  3877.88,  341.62 
60,  2363.81,  3319.19,  3878.12,  342.25 
61,  2402.81,  3320.25,  3879.62,  341.75 
62,  2441.38,  3321.75,  3878.69,  341.62 
63,  2477.38,  3323.44,  3879.38,  341.62 
64,  2514.94,  3323.44,  3878.31,  342.25 
65,  2556.69,  3325.56,  3878.81,  342.75 
66,  2595.31,  3326.94,  3877.75,  342.75 
67,  2635.88,  3327.69,  3876.75,  342.75 
68,  2677.12,  3329.06,  3875.38,  341.75 
69,  2717.62,  3330.75,  3875.06,  341.75 
70,  2757.06,  3331.69,  3872.25,  342.38 
71,  2796.50,  3332.88,  3876.81,  342.38 
72,  2834.38,  3334.50,  3877.75,  340.62 
73,  2871.12,  3335.31,  3877.44,  342.38 
74,  2908.31,  3337.81,  3876.94,  341.38 
75,  2949.38,  3338.94,  3873.44,  339.38 
76,  2990.69,  3341.12,  3872.50,  341.62 
77,  3029.31,  3342.56,  3870.12,  341.00 
78,  3070.94,  3345.12,  3868.12,  341.12 
79,  3109.12,  3345.88,  3865.31,  340.25 
80,  3148.88,  3348.38,  3862.62,  340.25 
81,  3189.31,  3350.56,  3860.31,  339.50 
82,  3228.62,  3353.06,  3856.25,  339.62 
83,  3265.81,  3354.81,  3850.12,  341.50 
84,  3303.19,  3357.12,  3841.62,  337.00 
85,  3341.81,  3360.69,  3813.94,  333.81 
86,  3381.94,  3380.88,  2456.38,  201.12 
87,  3419.25,  3411.31,  813.25,  55.50 
88,  3460.00,  3448.19,  167.19,  5.38 
89,  3499.44,  3486.50,  30.12,  5.62 
90,  3539.00,  3530.12,  11.12,  7.12 
91,  3577.25,  3571.25,  11.06,  5.75 
92,  3617.38,  3610.31,  12.31,  5.38 
93,  3655.44,  3646.56,  12.25,  4.75 
94,  3694.88,  3684.81,  12.38,  5.00 
95,  3733.31,  3724.69,  13.69,  6.25 
96,  3777.50,  3764.31,  13.44,  6.00 
97,  3814.06,  3803.62,  13.69,  6.12 
98,  3853.44,  3842.44,  13.94,  6.25 
99,  3890.00,  3880.31,  13.19,  5.50 
100,  3909.56,  3896.69,  14.56,  4.81 
