refV = 3926
0,  8.00,  6.38,  3895.00,  2.25 
1,  42.56,  42.88,  3892.75,  2.56 
2,  80.31,  81.94,  3893.69,  2.44 
3,  118.69,  119.25,  3895.31,  3.06 
4,  157.00,  159.38,  3894.56,  2.00 
5,  195.75,  197.00,  3895.38,  3.50 
6,  235.50,  235.56,  3895.44,  1.88 
7,  277.12,  275.94,  3893.75,  3.62 
8,  316.00,  315.00,  3895.44,  3.00 
9,  356.44,  357.94,  3894.62,  2.81 
10,  396.62,  395.81,  3895.88,  2.50 
11,  435.19,  435.06,  3897.19,  2.12 
12,  473.75,  478.00,  3895.81,  2.00 
13,  512.38,  514.81,  3896.25,  2.00 
14,  550.56,  553.00,  3896.06,  2.50 
15,  590.38,  590.56,  3896.50,  2.19 
16,  628.19,  629.50,  3895.62,  2.19 
17,  668.81,  669.62,  3895.25,  2.25 
18,  708.25,  710.50,  3894.81,  2.94 
19,  749.75,  750.31,  3895.50,  3.00 
20,  788.88,  788.75,  3894.94,  2.44 
21,  827.25,  827.50,  3896.31,  2.00 
22,  866.50,  866.31,  3895.38,  3.69 
23,  903.44,  903.94,  3895.19,  22.25 
24,  940.44,  942.06,  3896.94,  61.31 
25,  977.00,  981.25,  3896.31,  134.62 
26,  1016.81,  1023.06,  3895.00,  267.25 
27,  1062.75,  1062.12,  3889.25,  338.44 
28,  1103.31,  1102.75,  3886.00,  341.75 
29,  1143.12,  1143.19,  3896.25,  341.94 
30,  1183.44,  1182.69,  3897.88,  342.81 
31,  1221.25,  1219.69,  3896.19,  342.69 
32,  1260.62,  1258.75,  3895.19,  343.12 
33,  1297.19,  1295.38,  3896.12,  343.88 
34,  1333.56,  1333.38,  3896.06,  342.94 
35,  1372.38,  1373.00,  3896.12,  343.06 
36,  1410.94,  1413.19,  3895.81,  343.56 
37,  1457.38,  1454.06,  3894.38,  342.94 
38,  1496.69,  1494.06,  3893.94,  343.81 
39,  1536.25,  1534.12,  3896.31,  342.75 
40,  1577.00,  1574.19,  3895.56,  343.38 
41,  1615.81,  1610.56,  3895.88,  343.88 
42,  1654.19,  1648.25,  3895.81,  343.75 
43,  1690.12,  1685.88,  3897.31,  343.19 
44,  1727.94,  1726.12,  3897.94,  343.38 
45,  1765.38,  1764.44,  3896.38,  342.75 
46,  1804.38,  1804.12,  3898.75,  343.31 
47,  1845.19,  1846.38,  3896.81,  343.12 
48,  1887.56,  1886.69,  3896.81,  343.19 
49,  1929.31,  1926.56,  3897.31,  343.44 
50,  1971.00,  1966.25,  3897.88,  343.62 
51,  2008.75,  2002.38,  3897.31,  343.38 
52,  2047.75,  2040.31,  3897.19,  343.06 
53,  2085.00,  2078.00,  3897.88,  343.25 
54,  2121.38,  2119.88,  3898.56,  343.12 
55,  2159.56,  2161.00,  3898.94,  343.25 
56,  2198.06,  2199.19,  3898.38,  343.00 
57,  2239.75,  2240.06,  3900.25,  343.31 
58,  2280.94,  2277.75,  3897.56,  342.56 
59,  2322.00,  2316.75,  3898.44,  343.19 
60,  2361.69,  2357.94,  3899.19,  344.00 
61,  2400.00,  2394.88,  3898.94,  343.62 
62,  2437.50,  2432.62,  3901.31,  343.69 
63,  2474.06,  2470.25,  3900.62,  343.56 
64,  2515.75,  2507.75,  3902.31,  343.69 
65,  2552.62,  2546.06,  3901.69,  343.12 
66,  2591.50,  2588.00,  3900.12,  343.25 
67,  2632.88,  2627.31,  3899.62,  343.25 
68,  2674.19,  2667.06,  3898.06,  343.69 
69,  2714.88,  2708.56,  3897.81,  343.44 
70,  2754.44,  2747.62,  3896.94,  343.06 
71,  2792.88,  2786.50,  3899.06,  343.81 
72,  2831.62,  2824.38,  3907.31,  343.12 
73,  2867.12,  2861.19,  3906.94,  342.38 
74,  2909.12,  2899.69,  3905.19,  345.06 
75,  2947.81,  2939.12,  3904.69,  343.38 
76,  2986.81,  2980.50,  3904.44,  343.44 
77,  3027.31,  3019.31,  3902.94,  343.88 
78,  3067.31,  3059.94,  3903.06,  341.94 
79,  3107.19,  3100.06,  3902.25,  342.81 
80,  3148.06,  3140.12,  3902.62,  343.88 
81,  3185.50,  3178.94,  3902.81,  343.25 
82,  3225.31,  3216.12,  3902.81,  343.50 
83,  3263.75,  3255.62,  3904.62,  342.94 
84,  3302.31,  3294.25,  3904.62,  345.69 
85,  3340.25,  3331.38,  3904.44,  342.75 
86,  3378.38,  3371.19,  3903.81,  343.38 
87,  3419.00,  3408.81,  3903.81,  342.31 
88,  3458.75,  3447.81,  3902.69,  342.44 
89,  3500.06,  3492.75,  3902.31,  343.38 
90,  3539.12,  3530.88,  3901.50,  343.12 
91,  3576.69,  3570.06,  3902.44,  343.81 
92,  3617.19,  3611.19,  3906.56,  342.94 
93,  3655.69,  3649.50,  3905.44,  343.62 
94,  3696.44,  3689.25,  3907.12,  343.69 
95,  3735.94,  3726.69,  3906.69,  343.38 
96,  3773.75,  3767.00,  3907.50,  342.44 
97,  3814.88,  3806.19,  3907.06,  343.75 
98,  3853.94,  3845.38,  3907.19,  343.44 
99,  3891.62,  3883.75,  3907.12,  342.50 
100,  3911.12,  3901.12,  3909.19,  343.75 
