refV = 3926
0,  7.38,  7.00,  3891.38,  344.44 
1,  43.06,  43.56,  3891.38,  344.00 
2,  79.19,  82.44,  3891.19,  343.50 
3,  118.88,  121.75,  3892.56,  344.25 
4,  157.06,  160.12,  3893.12,  343.06 
5,  195.81,  199.44,  3893.31,  343.69 
6,  236.38,  237.62,  3892.12,  343.62 
7,  276.50,  277.19,  3891.50,  343.88 
8,  317.06,  315.06,  3892.56,  343.69 
9,  356.19,  357.62,  3893.44,  344.12 
10,  396.75,  395.44,  3894.12,  344.38 
11,  435.12,  435.19,  3895.50,  343.50 
12,  474.31,  477.94,  3892.56,  343.38 
13,  512.06,  516.25,  3896.00,  344.00 
14,  550.62,  554.69,  3894.44,  343.94 
15,  589.56,  593.31,  3894.56,  344.31 
16,  629.00,  632.12,  3894.44,  343.06 
17,  668.44,  672.19,  3894.06,  343.25 
18,  708.44,  710.12,  3893.62,  343.44 
19,  749.62,  749.38,  3892.50,  343.12 
20,  789.44,  788.19,  3893.00,  343.56 
21,  828.44,  827.38,  3894.75,  343.81 
22,  866.19,  865.88,  3892.75,  343.75 
23,  903.62,  905.06,  3893.75,  343.75 
24,  941.00,  944.50,  3894.62,  343.44 
25,  976.88,  983.56,  3895.81,  342.56 
26,  1016.69,  1024.31,  3894.06,  342.62 
27,  1063.56,  1063.19,  3891.12,  342.38 
28,  1102.44,  1101.81,  3887.50,  338.94 
29,  1143.88,  1141.56,  3896.94,  288.12 
30,  1183.81,  1181.56,  3901.06,  187.19 
31,  1221.94,  1220.44,  3899.94,  117.50 
32,  1259.44,  1258.25,  3899.50,  70.81 
33,  1296.25,  1297.25,  3899.94,  39.56 
34,  1333.94,  1336.62,  3900.06,  19.62 
35,  1371.69,  1375.62,  3900.19,  8.75 
36,  1410.31,  1415.31,  3899.38,  4.06 
37,  1456.81,  1454.00,  3897.44,  2.75 
38,  1496.50,  1492.94,  3897.38,  3.50 
39,  1536.81,  1533.00,  3899.50,  3.75 
40,  1576.56,  1571.75,  3898.31,  3.88 
41,  1616.44,  1609.88,  3899.44,  3.19 
42,  1654.75,  1648.00,  3900.25,  3.19 
43,  1690.19,  1686.38,  3899.69,  2.38 
44,  1727.75,  1729.12,  3900.56,  2.38 
45,  1766.31,  1767.81,  3902.00,  2.62 
46,  1803.94,  1806.81,  3901.44,  3.12 
47,  1845.00,  1848.56,  3901.50,  2.81 
48,  1887.06,  1886.62,  3900.62,  2.62 
49,  1930.12,  1925.62,  3900.38,  2.81 
50,  1970.62,  1963.88,  3900.62,  2.81 
51,  2009.38,  2002.75,  3901.50,  4.12 
52,  2048.44,  2040.50,  3901.06,  2.94 
53,  2084.81,  2078.94,  3901.50,  3.25 
54,  2121.69,  2123.38,  3901.25,  2.50 
55,  2161.06,  2164.81,  3902.75,  3.62 
56,  2198.69,  2203.19,  3902.88,  2.88 
57,  2239.75,  2241.88,  3901.81,  2.25 
58,  2281.62,  2279.25,  3902.56,  2.81 
59,  2322.69,  2317.88,  3902.94,  2.75 
60,  2362.31,  2356.31,  3902.62,  3.38 
61,  2399.56,  2394.88,  3901.75,  3.12 
62,  2436.62,  2433.50,  3903.50,  2.75 
63,  2475.12,  2473.19,  3904.81,  3.69 
64,  2515.81,  2511.56,  3905.69,  4.12 
65,  2553.62,  2550.50,  3904.06,  3.25 
66,  2591.88,  2591.50,  3903.75,  3.69 
67,  2633.31,  2630.88,  3903.44,  3.06 
68,  2674.62,  2669.12,  3902.00,  2.31 
69,  2714.81,  2708.50,  3901.38,  2.44 
70,  2755.06,  2747.62,  3900.56,  2.88 
71,  2793.38,  2786.81,  3903.50,  4.06 
72,  2830.81,  2824.56,  3909.56,  3.62 
73,  2868.25,  2864.38,  3911.75,  3.06 
74,  2909.12,  2903.06,  3909.12,  4.75 
75,  2947.69,  2943.25,  3908.31,  2.88 
76,  2986.25,  2982.69,  3908.19,  3.75 
77,  3026.94,  3021.69,  3907.19,  2.88 
78,  3067.62,  3060.94,  3905.88,  2.12 
79,  3108.25,  3100.88,  3906.50,  3.06 
80,  3147.94,  3140.56,  3906.19,  3.50 
81,  3185.62,  3178.56,  3906.56,  3.81 
82,  3225.81,  3218.00,  3906.81,  3.62 
83,  3263.69,  3256.94,  3906.62,  2.44 
84,  3301.25,  3295.62,  3906.88,  5.25 
85,  3339.62,  3333.69,  3906.56,  3.19 
86,  3378.81,  3372.94,  3908.12,  3.88 
87,  3419.25,  3411.50,  3906.69,  2.81 
88,  3460.19,  3449.69,  3905.56,  2.75 
89,  3500.06,  3493.12,  3906.44,  2.75 
90,  3539.44,  3532.25,  3904.56,  2.75 
91,  3576.88,  3571.38,  3907.38,  2.31 
92,  3616.50,  3612.25,  3908.69,  2.25 
93,  3655.81,  3650.56,  3908.75,  2.62 
94,  3696.50,  3689.81,  3910.00,  3.94 
95,  3736.06,  3729.19,  3911.31,  3.81 
96,  3774.69,  3768.62,  3910.44,  3.88 
97,  3814.69,  3808.06,  3910.38,  2.69 
98,  3854.12,  3846.31,  3909.94,  2.75 
99,  3892.94,  3885.75,  3910.81,  3.06 
100,  3911.50,  3901.25,  3911.12,  3.75 
