refV = 3925,PD0,PE1,PD2,PD3,,Average Offset (SNS),,,refV
0,3.94,2.88,1.62,2.56,,6.529306931,,0.958485958,3.163003663
1,40.69,38.94,0.31,2.19,,,,,
2,76.94,78.31,0.94,1.5,,Average Offset SinkSense,,,
3,115.69,115.19,0.81,3.06,,2.211881188,,,
4,153.88,155.81,1.56,2.94,,,,,
5,192.69,193.31,1.31,1.56,,,,,
6,235,232.44,1.31,2.75,,,,,
7,273.62,271,0.81,1.94,,,,,
8,314.06,312.19,0.69,2.31,,,,,
9,353.75,352.81,1.06,1.88,,,,,
10,392.69,391.38,2.56,1.31,,,,,
11,432.56,431.19,3.94,2.31,,,,,
12,470.81,473.25,3.19,1.94,,,,,
13,509.56,511.75,2.12,1.69,,,,,
14,548.25,549.25,2.62,2.31,,,,,
15,586.94,586.38,2.31,2.19,,,,,
16,626.06,626.12,1.88,1.94,,,,,
17,666.94,666.25,2.38,2.62,,,,,
18,706.25,705.62,1.94,2.06,,,,,
19,746,746.19,1.94,1.81,,,,,
20,786.19,785.19,2.31,2.56,,,,,
21,824.38,824.25,1.94,2,,,,,
22,863.94,864.44,2.62,3.38,,,,,
23,900.5,901.12,2.44,2.12,,,,,
24,937.88,938.81,2.75,2.25,,,,,
25,975.12,976.88,2.62,3.19,,,,,
26,1017.38,1017.44,3.06,2,,,,,
27,1060.62,1058.06,3.12,2.25,,,,,
28,1102.12,1099.44,2.62,2.62,,,,,
29,1142.12,1141.25,2.62,2.44,,,,,
30,1181.75,1180.44,7,2.62,,,,,
31,1220.06,1220,6.75,2.38,,,,,
32,1258.56,1258.06,5.62,2.12,,,,,
33,1295.06,1294.69,5.38,1.75,,,,,
34,1331.56,1331.94,4.88,3.19,,,,,
35,1369.94,1369.19,4.69,2.44,,,,,
36,1409.19,1409.25,4.69,2.5,,,,,
37,1454.25,1450.38,4.19,1.94,,,,,
38,1496,1491.25,4,1.75,,,,,
39,1535.44,1533.31,4,2.38,,,,,
40,1575.75,1572.81,4.06,1.88,,,,,
41,1614.06,1611.5,5.69,2.12,,,,,
42,1653,1648.5,5.5,3.62,,,,,
43,1689.25,1684.62,5.88,2.12,,,,,
44,1725.25,1720.19,5.25,2.06,,,,,
45,1764.12,1761.31,5.69,2.38,,,,,
46,1803.12,1803.56,6.69,2.75,,,,,
47,1843.88,1843.44,6,2.12,,,,,
48,1886,1884.44,5.75,2,,,,,
49,1927.94,1925.12,5.88,1.81,,,,,
50,1968.12,1964.5,6.19,2.19,,,,,
51,2008.62,2004.06,6.69,2.38,,,,,
52,2046,2039.69,6.38,1.94,,,,,
53,2083.56,2075.5,7,2.25,,,,,
54,2120.12,2110.69,7.12,1.94,,,,,
55,2158.5,2157.81,7.06,2.06,,,,,
56,2197,2197,6.69,1.88,,,,,
57,2238.38,2235.81,7.12,2.06,,,,,
58,2280.25,2275.38,6.75,1.81,,,,,
59,2321,2316.81,7.38,2.19,,,,,
60,2360.12,2356.12,8.69,2.38,,,,,
61,2397.19,2393.81,8.81,2.44,,,,,
62,2434.88,2431.62,8.88,2.06,,,,,
63,2473.56,2467.94,7.5,1.81,,,,,
64,2513.69,2504.94,8.56,1.88,,,,,
65,2552.12,2543.88,8.12,2.25,,,,,
66,2590.06,2583.69,7.62,1.88,,,,,
67,2631.25,2623.25,7.75,2.5,,,,,
68,2673.88,2665.94,7.62,2.38,,,,,
69,2713.12,2706.81,7.25,1.38,,,,,
70,2753.31,2745.94,11.56,2,,,,,
71,2791.56,2785.44,10.5,1.81,,,,,
72,2828.25,2821.94,11.25,1.88,,,,,
73,2867,2859.94,11.62,1.81,,,,,
74,2906.12,2898.31,9.81,1.75,,,,,
75,2945.38,2936.56,10.56,2.81,,,,,
76,2984.62,2976.44,9.81,2.12,,,,,
77,3024.75,3016.31,9.62,1.81,,,,,
78,3065.19,3056.44,9.12,1.94,,,,,
79,3106.31,3098.38,10.75,2.69,,,,,
80,3145.38,3137.25,9.06,2.19,,,,,
81,3183.12,3175.5,9.56,2.06,,,,,
82,3222.69,3214.94,10.44,3.06,,,,,
83,3260.69,3252.38,10.38,1.88,,,,,
84,3299.88,3291.69,10.75,2.31,,,,,
85,3337.81,3329.06,11.19,3.12,,,,,
86,3375.25,3367.25,10.06,1.94,,,,,
87,3416.12,3404.44,9.5,2.81,,,,,
88,3456.88,3447,9.25,2.19,,,,,
89,3496.69,3489.12,10.12,2.19,,,,,
90,3536.31,3528.31,9.88,2.31,,,,,
91,3575,3568.19,12.62,2.88,,,,,
92,3613.81,3606.88,11.88,1.88,,,,,
93,3652,3646.06,12.5,2.44,,,,,
94,3690.56,3684.25,12.12,1.94,,,,,
95,3733.44,3724.25,12.69,2.38,,,,,
96,3772.12,3763.62,13.06,1.5,,,,,
97,3812.56,3803.44,12.88,2,,,,,
98,3850.94,3841.31,13,2.06,,,,,
99,3889.06,3879.5,13.25,2.25,,,,,
100,3907,3896.5,12.5,2.12,,,,,
