refV = 3927,PD0,PE1,PD2,PD3,,"PD, no offset",Excite,,Drv,"PD3, no offset","PD2, no offset",Sns,V_be,,Snk,V_be
0,36,3272.88,3884.75,340.5,,0,0,,4.167150497,338.364653,3878.220693,4.937892403,0.770741906,,0.004869311,4.167150497
1,43.12,3272,3884.81,339.75,,7.12,0.009065444,,4.166030048,337.614653,3878.280693,4.937968797,0.771938748,,0.004858518,
2,79.44,3271.12,3882.12,340.19,,43.44,0.055309396,,4.1649096,338.054653,3875.590693,4.93454379,0.76963419,,0.00486485,
3,118.44,3270.31,3883.81,339.81,,82.44,0.104965623,,4.163878279,337.674653,3877.280693,4.93669556,0.772817282,,0.004859382,
4,156.5,3271.31,3884.38,339.69,,120.5,0.153425006,,4.165151515,337.554653,3877.850693,4.937421305,0.77226979,,0.004857655,
5,194,3271.25,3883.56,339.81,,158,0.201171378,,4.165075121,337.674653,3877.030693,4.936377251,0.77130213,,0.004859382,
6,237.12,3270.94,3884.69,340.44,,201.12,0.256073338,,4.164680418,338.304653,3878.160693,4.937816008,0.773135591,,0.004868448,
7,276.25,3273.06,3884.88,340.12,,240.25,0.305895085,,4.167379679,337.984653,3878.350693,4.938057923,0.770678244,,0.004863843,
8,315.94,3273.69,3884.19,339.75,,279.94,0.356429845,,4.168181818,337.614653,3877.660693,4.93717939,0.768997572,,0.004858518,
9,356.94,3275.25,3884.31,340.12,,320.94,0.408632544,,4.170168067,337.984653,3877.780693,4.937332179,0.767164111,,0.004863843,
10,395.56,3277.56,3887.44,339.5,,359.56,0.45780494,,4.173109244,337.364653,3880.910693,4.941317409,0.768208165,,0.00485492,
11,434.94,3277.5,3888.62,339.75,,398.94,0.507944996,,4.17303285,337.614653,3882.090693,4.942819828,0.769786979,,0.004858518,
12,473.06,3281.81,3888.38,339.94,,437.06,0.556480774,,4.178520499,337.804653,3881.850693,4.942514251,0.763993752,,0.004861252,
13,511.81,3282.25,3887.38,339.75,,475.81,0.605818691,,4.179080723,337.614653,3880.850693,4.941241015,0.762160292,,0.004858518,
14,550.69,3281.12,3887.88,340,,514.69,0.655322129,,4.177641966,337.864653,3881.350693,4.941877633,0.764235667,,0.004862116,
15,589.25,3282,3887.56,338.38,,553.25,0.704418131,,4.178762414,336.244653,3881.030693,4.941470197,0.762707783,,0.004838803,
16,628.31,3280.62,3887.44,340.12,,592.31,0.754150751,,4.177005348,337.984653,3880.910693,4.941317409,0.764312061,,0.004863843,
17,668.44,3281.44,3887.19,340.12,,632.44,0.805245735,,4.178049402,337.984653,3880.660693,4.9409991,0.762949698,,0.004863843,
18,708.44,3281.06,3887.44,339.62,,672.44,0.856175197,,4.177565572,337.484653,3880.910693,4.941317409,0.763751837,,0.004856647,
19,748.19,3282,3886.25,339.31,,712.19,0.906786351,,4.178762414,337.174653,3879.720693,4.939802257,0.761039843,,0.004852186,
20,789.62,3283.62,3887.06,340.12,,753.62,0.959536542,,4.180825057,337.984653,3880.530693,4.940833579,0.760008522,,0.004863843,
21,827.12,3284.12,3887.75,339.31,,791.12,1.007282913,,4.181461676,337.174653,3881.220693,4.941712112,0.760250437,,0.004852186,
22,865.5,3285,3888.31,341,,829.5,1.056149733,,4.182582124,338.864653,3881.780693,4.942425125,0.759843001,,0.004876506,
23,903.12,3285.69,3888.44,340,,867.12,1.104048892,,4.183460657,337.864653,3881.910693,4.942590646,0.759129989,,0.004862116,
24,939.44,3286.06,3888.19,339.75,,903.44,1.150292844,,4.183931755,337.614653,3881.660693,4.942272336,0.758340582,,0.004858518,
25,975.81,3285.62,3888.06,339.81,,939.81,1.196600458,,4.18337153,337.674653,3881.530693,4.942106816,0.758735285,,0.004859382,
26,1019,3287.56,3888.81,340.06,,983,1.251591546,,4.185841609,337.924653,3882.280693,4.943061743,0.757220134,,0.004862979,
27,1061.5,3288.19,3887.31,339.62,,1025.5,1.3057041,,4.186643748,337.484653,3880.780693,4.941151888,0.75450814,,0.004856647,
28,1103.69,3288.31,3885.5,339.81,,1067.69,1.359421951,,4.186796537,337.674653,3878.970693,4.93884733,0.752050793,,0.004859382,
29,1142.56,3288.56,3883,339.75,,1106.56,1.408912656,,4.187114846,337.614653,3876.470693,4.935664239,0.748549393,,0.004858518,
30,1183.44,3289.94,3884.94,339.62,,1147.44,1.460962567,,4.188871912,337.484653,3878.410693,4.938134318,0.749262405,,0.004856647,
31,1222.25,3291.06,3892.69,339.88,,1186.25,1.510376878,,4.190297937,337.744653,3886.160693,4.948001901,0.757703964,,0.004860389,
32,1260.25,3292.25,3893.12,340.81,,1224.25,1.558759868,,4.191813089,338.674653,3886.590693,4.948549393,0.756736304,,0.004873772,
33,1296.88,3294.19,3892.94,340.19,,1260.88,1.605398523,,4.194283168,338.054653,3886.410693,4.94832021,0.754037042,,0.00486485,
34,1333.5,3294.12,3892.69,339.81,,1297.5,1.652024446,,4.194194041,337.674653,3886.160693,4.948001901,0.75380786,,0.004859382,
35,1370.94,3294.94,3892.75,340.12,,1334.94,1.699694423,,4.195238095,337.984653,3886.220693,4.948078295,0.7528402,,0.004863843,
36,1410.81,3294.56,3891.56,340.25,,1374.81,1.750458365,,4.194754265,338.114653,3885.030693,4.946563144,0.751808878,,0.004865713,
37,1455.75,3295.62,3891.81,340.25,,1419.75,1.807677617,,4.196103896,338.114653,3885.280693,4.946881453,0.750777557,,0.004865713,
38,1497.12,3296.19,3890.81,339.88,,1461.12,1.860351413,,4.196829641,337.744653,3884.280693,4.945608216,0.748778575,,0.004860389,
39,1537.31,3297.62,3890.44,340.12,,1501.31,1.911522791,,4.198650369,337.984653,3883.910693,4.945137119,0.746486749,,0.004863843,
40,1577,3297.88,3889,340.75,,1541,1.96205755,,4.198981411,338.614653,3882.470693,4.943303658,0.744322247,,0.004872909,
41,1615.56,3297.56,3892.94,339.19,,1579.56,2.011153552,,4.198573975,337.054653,3886.410693,4.94832021,0.749746235,,0.004850459,
42,1653.56,3297.62,3893.56,341.19,,1617.56,2.059536542,,4.198650369,339.054653,3887.030693,4.949109617,0.750459248,,0.004879241,
43,1690.88,3298.12,3894.12,340.25,,1654.88,2.107053731,,4.199286988,338.114653,3887.590693,4.949822629,0.750535642,,0.004865713,
44,1726.94,3298.94,3894.31,339.62,,1690.94,2.152966641,,4.200331042,337.484653,3887.780693,4.950064544,0.749733503,,0.004856647,
45,1764.75,3302.75,3894.38,339.75,,1728.75,2.201107716,,4.205182073,337.614653,3887.850693,4.950153671,0.744971598,,0.004858518,
46,1804.25,3306.38,3893.88,340.12,,1768.25,2.25140056,,4.209803922,337.984653,3887.350693,4.949517052,0.739713131,,0.004863843,
47,1845.5,3305.94,3893.88,339.62,,1809.5,2.303921569,,4.209243697,337.484653,3887.350693,4.949517052,0.740273355,,0.004856647,
48,1887.81,3306.81,3895.12,340.56,,1851.81,2.357792208,,4.210351413,338.424653,3888.590693,4.951095866,0.740744453,,0.004870175,
49,1929.12,3306.19,3894.5,340,,1893.12,2.41038961,,4.209562007,337.864653,3887.970693,4.950306459,0.740744453,,0.004862116,
50,1970.31,3307.5,3895.19,340.25,,1934.31,2.462834225,,4.211229947,338.114653,3888.660693,4.951184992,0.739955046,,0.004865713,
51,2008.25,3307.19,3894.81,340.38,,1972.25,2.51114082,,4.210835243,338.244653,3888.280693,4.950701162,0.739865919,,0.004867584,
52,2047.31,3308,3894.56,339.44,,2011.31,2.56087344,,4.211866565,337.304653,3888.030693,4.950382853,0.738516289,,0.004854057,
53,2083.81,3308.81,3895.75,340.38,,2047.81,2.607346575,,4.212897886,338.244653,3889.220693,4.951898005,0.739000118,,0.004867584,
54,2121,3308.69,3896.69,340.25,,2085,2.654698243,,4.212745098,338.114653,3890.160693,4.953094847,0.740349749,,0.004865713,
55,2159.38,3318.38,3896.81,339.94,,2123.38,2.703565062,,4.22508276,337.804653,3890.280693,4.953247636,0.728164875,,0.004861252,
56,2197.88,3319.69,3897.44,340.5,,2161.88,2.75258467,,4.2267507,338.364653,3890.910693,4.954049775,0.727299074,,0.004869311,
57,2240.62,3319.56,3899.06,339.69,,2204.62,2.807002801,,4.22658518,337.554653,3892.530693,4.956112418,0.729527238,,0.004857655,
58,2280.19,3317.19,3896.81,338.75,,2244.19,2.857384772,,4.223567609,336.614653,3890.280693,4.953247636,0.729680027,,0.004844127,
59,2321.69,3318.25,3897.81,339.25,,2285.69,2.91022409,,4.22491724,337.114653,3891.280693,4.954520872,0.729603633,,0.004851323,
60,2361.25,3319,3900.06,339.25,,2325.25,2.960593328,,4.225872167,337.114653,3893.530693,4.957385654,0.731513487,,0.004851323,
61,2398.12,3320.25,3898.56,339.44,,2362.12,3.00753756,,4.227463713,337.304653,3892.030693,4.9554758,0.728012087,,0.004854057,
62,2436.56,3320.19,3899.06,339.62,,2400.56,3.056480774,,4.227387319,337.484653,3892.530693,4.956112418,0.728725099,,0.004856647,
63,2475.25,3322.19,3899.25,339.38,,2439.25,3.105742297,,4.229933792,337.244653,3892.720693,4.956354333,0.726420541,,0.004853194,
64,2514.19,3322.44,3899.62,340.12,,2478.19,3.155322129,,4.230252101,337.984653,3893.090693,4.95682543,0.72657333,,0.004863843,
65,2553.5,3323.88,3899.06,340.75,,2517.5,3.205373058,,4.232085561,338.614653,3892.530693,4.956112418,0.724026856,,0.004872909,
66,2592,3325.88,3899.81,339.25,,2556,3.254392666,,4.234632035,337.114653,3893.280693,4.957067345,0.722435311,,0.004851323,
67,2632.56,3327.12,3899.44,340.06,,2596.56,3.306035141,,4.236210848,337.924653,3892.910693,4.956596248,0.7203854,,0.004862979,
68,2674.62,3328.44,3898.75,339.19,,2638.62,3.359587471,,4.23789152,337.054653,3892.220693,4.955717715,0.717826194,,0.004850459,
69,2715.62,3329.5,3898.06,339,,2679.62,3.411790171,,4.239241151,336.864653,3891.530693,4.954839181,0.71559803,,0.004847725,
70,2755,3330.5,3900.69,339.75,,2719,3.461930227,,4.240514388,337.614653,3894.160693,4.958187793,0.717673406,,0.004858518,
71,2792.94,3333.06,3904.5,339,,2756.94,3.510236822,,4.243773873,336.864653,3897.970693,4.963038825,0.719264952,,0.004847725,
72,2830.56,3333,3904.31,339.56,,2794.56,3.558135982,,4.243697479,337.424653,3897.780693,4.96279691,0.719099431,,0.004855784,
73,2868.81,3335.31,3904.62,339.19,,2832.81,3.60683728,,4.246638655,337.054653,3898.090693,4.963191613,0.716552958,,0.004850459,
74,2908.19,3336.44,3904.19,338.75,,2872.19,3.656977336,,4.248077413,336.614653,3897.660693,4.962644121,0.714566709,,0.004844127,
75,2947.19,3337.31,3902.88,339.38,,2911.19,3.706633563,,4.249185129,337.244653,3896.350693,4.960976182,0.711791053,,0.004853194,
76,2986.5,3339.06,3902.94,338.69,,2950.5,3.756684492,,4.251413293,336.554653,3896.410693,4.961052576,0.709639283,,0.004843264,
77,3027,3342.06,3904.12,339.5,,2991,3.808250573,,4.255233002,337.364653,3897.590693,4.962554995,0.707321993,,0.00485492,
78,3067.38,3342.56,3903.69,338,,3031.38,3.859663866,,4.255869621,335.864653,3897.160693,4.962007503,0.706137883,,0.004833334,
79,3108.5,3345.75,3903.56,338.44,,3072.5,3.912019353,,4.259931245,336.304653,3897.030693,4.961841982,0.701910737,,0.004839666,
80,3147.06,3347.06,3904.31,337.75,,3111.06,3.961115355,,4.261599185,335.614653,3897.780693,4.96279691,0.701197725,,0.004829737,
81,3185.12,3348.69,3903.19,338.56,,3149.12,4.009574739,,4.263674561,336.424653,3896.660693,4.961370885,0.697696324,,0.004841393,
82,3224.88,3351.25,3904.06,337.44,,3188.88,4.060198625,,4.266934046,335.304653,3897.530693,4.962478601,0.695544554,,0.004825276,
83,3261.81,3353.31,3904.44,336.44,,3225.81,4.107219251,,4.269556914,334.304653,3897.910693,4.962962431,0.693405517,,0.004810885,
84,3300.44,3355.44,3904.38,336.44,,3264.44,4.15640438,,4.272268908,334.304653,3897.850693,4.962886036,0.690617129,,0.004810885,
85,3339.62,3359.56,3906.5,333.94,,3303.62,4.206289789,,4.277514642,331.804653,3899.970693,4.965585298,0.688070656,,0.004774908,
86,3377.44,3378.06,3905.62,201.56,,3341.44,4.254443596,,4.301069519,199.424653,3899.090693,4.96446485,0.663395331,,0.002869864,
87,3418.81,3410.5,3907.31,54.81,,3382.81,4.307117392,,4.342373313,52.674653,3900.780693,4.96661662,0.624243307,,0.000758026,
88,3459.81,3449.88,3905.94,2.31,,3423.81,4.359320092,,4.392513369,0.174653,3899.410693,4.964872285,0.572358916,,2.51338E-06,
89,3499.12,3491.44,3905.88,3,,3463.12,4.409371021,,4.445429081,0.864653,3899.350693,4.964795891,0.519366811,,1.2443E-05,
90,3538.94,3531.25,3904.69,2.62,,3502.94,4.460071301,,4.496116628,0.484653,3898.160693,4.96328074,0.467164111,,6.97451E-06,
91,3577.31,3569.62,3909.25,2.25,,3541.31,4.508925388,,4.544970716,0.114653,3902.720693,4.969086698,0.424115983,,1.64994E-06,
92,3614.62,3608.94,3908.5,1.94,,3578.62,4.556429845,,4.595034377,-0.195347,3901.970693,4.968131771,0.373097394,,-2.81118E-06,
93,3654.56,3649.06,3909.31,2,,3618.56,4.607282913,,4.646116628,-0.135347,3902.780693,4.969163093,0.323046464,,-1.94774E-06,
94,3693.25,3687.06,3910.25,1.12,,3657.25,4.656544436,,4.694499618,-1.015347,3903.720693,4.970359935,0.275860317,,-1.46116E-05,
95,3734.75,3725.5,3909.44,2.69,,3698.75,4.709383754,,4.743442832,0.554653,3902.910693,4.969328613,0.225885782,,7.98186E-06,
96,3773.62,3765.81,3910.06,2.75,,3737.62,4.758874459,,4.794766998,0.614653,3903.530693,4.97011802,0.175351022,,8.8453E-06,
97,3814.56,3805.5,3910.44,1.69,,3778.56,4.811000764,,4.845301757,-0.445347,3903.910693,4.97060185,0.125300093,,-6.40886E-06,
98,3852.12,3843.38,3909.19,2.38,,3816.12,4.858823529,,4.893531958,0.244653,3902.660693,4.969010304,0.075478346,,3.52073E-06,
99,3891.75,3883.19,3911.44,2.5,,3855.75,4.909281895,,4.944219506,0.364653,3904.910693,4.971875087,0.027655581,,5.24762E-06,
100,3910.5,3900.31,3911.06,3.12,,3874.5,4.93315508,,4.966017316,0.984653,3904.530693,4.971391257,0.005373941,,1.41699E-05,
