refV = 3925,PD0,PE1,PD2,PD3,,"PD, no offset",Excite,,"PD2, no offset",Sns (V_c),Sns (V_e),V_ce,,Drv,i_b,"PD3, no offset",Snk,i_c,V_be,P_Q
0,33.19,3270.06,3868.5,341.56,,0,0,,3861.970693,4.919707889,4.937892403,0.018184513,,4.165681529,0.001893492,339.424653,0.004884565,0.022340106,0.770741906,0.001865637
1,44.25,3270.88,3870.5,342.06,,11.06,0.014089172,,3863.970693,4.92225566,4.937968797,0.015713137,,4.166726115,0.001887562,339.924653,0.004891761,0.022351654,0.771938748,0.001808297
2,82.44,3273.31,3872.31,342.25,,49.25,0.062738854,,3865.780693,4.924561392,4.93454379,0.009982398,,4.169821656,0.001866856,340.114653,0.004894495,0.022362122,0.76963419,0.001660024
3,121.62,3270.19,3871.81,343,,88.43,0.112649682,,3865.280693,4.92392445,4.93669556,0.012771111,,4.165847134,0.001842362,340.864653,0.004905288,0.022359178,0.772817282,0.001709361
4,158.06,3272.5,3872.44,341.56,,124.87,0.159070064,,3865.910693,4.924726997,4.937421305,0.012694308,,4.168789809,0.0018226,339.424653,0.004884565,0.02236292,0.77226979,0.001691421
5,200.88,3272.81,3871.44,342.44,,167.69,0.213617834,,3864.910693,4.923453112,4.936377251,0.012924139,,4.169184713,0.001797985,340.304653,0.004897229,0.022357072,0.77130213,0.001675736
6,239.75,3274.62,3872.81,342.31,,206.56,0.263133758,,3866.280693,4.925198335,4.937816008,0.012617673,,4.171490446,0.001776526,340.174653,0.004895358,0.022365014,0.773135591,0.00165569
7,278.56,3274.56,3872.12,343,,245.37,0.312573248,,3865.590693,4.924319354,4.938057923,0.013738569,,4.171414013,0.001754019,340.864653,0.004905288,0.022360973,0.770678244,0.001658992
8,318.69,3273.62,3872.75,342.19,,285.5,0.363694268,,3866.220693,4.925121902,4.93717939,0.012057488,,4.170216561,0.001730237,340.054653,0.004893631,0.022364674,0.768997572,0.00160021
9,357.75,3275.25,3873.81,342.5,,324.56,0.413452229,,3867.280693,4.92647222,4.937332179,0.010859958,,4.172292994,0.001708564,340.364653,0.004898093,0.022370791,0.767164111,0.001553695
10,398.12,3277.38,3872.25,342.5,,364.93,0.464878981,,3865.720693,4.924484959,4.941317409,0.01683245,,4.175006369,0.001686422,340.364653,0.004898093,0.022361758,0.768208165,0.001671926
11,437.44,3281.81,3874.56,342.75,,404.25,0.514968153,,3868.030693,4.927427634,4.942819828,0.015392194,,4.180649682,0.001666219,340.614653,0.00490169,0.022375118,0.769786979,0.001627036
12,477.06,3282.25,3873.94,342.75,,443.87,0.56543949,,3867.410693,4.926637825,4.942514251,0.015876426,,4.181210191,0.001643532,340.614653,0.00490169,0.022371528,0.763993752,0.001610828
13,515.25,3280.94,3873.25,341.88,,482.06,0.614089172,,3866.720693,4.925758845,4.941241015,0.01548217,,4.179541401,0.00162066,339.744653,0.00488917,0.022367589,0.762160292,0.001581502
14,553.31,3281.25,3874.56,343.12,,520.12,0.662573248,,3868.030693,4.927427634,4.941877633,0.014449999,,4.179936306,0.001598801,340.984653,0.004907015,0.022375094,0.764235667,0.001545181
15,592.81,3281.62,3873.69,342.25,,559.62,0.71289172,,3867.160693,4.926319354,4.941470197,0.015150843,,4.180407643,0.001576144,340.114653,0.004894495,0.022370113,0.762707783,0.001541063
16,631.06,3281.56,3874.12,343.25,,597.87,0.761617834,,3867.590693,4.926867125,4.941317409,0.014450284,,4.18033121,0.001553961,341.114653,0.004908886,0.022372537,0.764312061,0.001511
17,670.12,3282.31,3875.44,340.75,,636.93,0.811375796,,3868.910693,4.928548654,4.9409991,0.012450446,,4.181286624,0.001531778,338.614653,0.004872909,0.022380344,0.762949698,0.001447315
18,709.62,3282.94,3874,342,,676.43,0.861694268,,3867.470693,4.926714259,4.941317409,0.01460315,,4.182089172,0.00150927,339.864653,0.004890897,0.022371924,0.763751837,0.001479409
19,751.12,3284.56,3873.81,343.12,,717.93,0.91456051,,3867.280693,4.92647222,4.939802257,0.013330037,,4.184152866,0.001486178,340.984653,0.004907015,0.022370751,0.761039843,0.001429244
20,790.06,3285.19,3874.19,342.38,,756.87,0.964165605,,3867.660693,4.926956297,4.940833579,0.013877282,,4.184955414,0.001463995,340.244653,0.004896366,0.022373,0.760008522,0.001423125
21,830.5,3284.31,3873.81,343.5,,797.31,1.015681529,,3867.280693,4.92647222,4.941712112,0.015239892,,4.183834395,0.001440069,341.364653,0.004912483,0.022370726,0.760250437,0.001435741
22,868.56,3286.19,3874.69,343.38,,835.37,1.064165605,,3868.160693,4.927593239,4.942425125,0.014831885,,4.186229299,0.00141912,341.244653,0.004910756,0.022375829,0.759843001,0.001410184
23,905.44,3286.44,3874.06,342.62,,872.25,1.111146497,,3867.530693,4.926790692,4.942590646,0.015799954,,4.186547771,0.00139791,340.484653,0.004899819,0.022372231,0.759129989,0.001414675
24,941.31,3286.69,3874.44,342.88,,908.12,1.156840764,,3867.910693,4.927274768,4.942272336,0.014997568,,4.186866242,0.001377284,340.744653,0.004903561,0.022374415,0.758340582,0.001380012
25,982.31,3288.31,3874.38,342.12,,949.12,1.209070064,,3867.850693,4.927198335,4.942106816,0.014908481,,4.188929936,0.001354482,339.984653,0.004892624,0.022374117,0.758735285,0.001361257
26,1025.81,3289.06,3875.44,342.5,,992.62,1.264484076,,3868.910693,4.928548654,4.943061743,0.01451309,,4.18988535,0.001329728,340.364653,0.004898093,0.02238023,0.757220134,0.001331703
27,1063.75,3289.56,3873.94,342,,1030.56,1.312815287,,3867.410693,4.926637825,4.941151888,0.014514063,,4.190522293,0.001308049,339.864653,0.004890897,0.022371577,0.75450814,0.001311636
28,1104.56,3290.62,3870.44,342.62,,1071.37,1.364802548,,3863.910693,4.922179227,4.93884733,0.016668103,,4.191872611,0.001285032,340.484653,0.004899819,0.02235127,0.752050793,0.001338962
29,1144.12,3290,3868.62,343.25,,1110.93,1.415197452,,3862.090693,4.919860755,4.935664239,0.015803483,,4.191082803,0.001261766,341.114653,0.004908886,0.02234069,0.748549393,0.001297555
30,1184,3291.38,3877.69,342.62,,1150.81,1.466,,3871.160693,4.931414896,4.938134318,0.006719422,,4.192840764,0.001239473,340.484653,0.004899819,0.02239325,0.749262405,0.00107916
31,1224.31,3292.88,3878,342.25,,1191.12,1.517350318,,3871.470693,4.9318098,4.948001901,0.016192101,,4.194751592,0.001217001,340.114653,0.004894495,0.02239507,0.757703964,0.001284749
32,1263.69,3293.81,3877.19,342.88,,1230.5,1.567515924,,3870.660693,4.930777953,4.948549393,0.01777144,,4.195936306,0.001194737,340.744653,0.004903561,0.022390338,0.756736304,0.001302009
33,1300.31,3293.81,3877.06,343,,1267.12,1.614165605,,3870.530693,4.930612348,4.94832021,0.017707862,,4.195936306,0.001173532,340.864653,0.004905288,0.022389578,0.754037042,0.001281358
34,1336.5,3294.12,3876.88,343,,1303.31,1.660267516,,3870.350693,4.930383048,4.948001901,0.017618853,,4.19633121,0.001152756,340.864653,0.004905288,0.022388535,0.75380786,0.001263417
35,1375.06,3294.94,3877.5,342,,1341.87,1.709388535,,3870.970693,4.931172857,4.948078295,0.016905438,,4.197375796,0.001130903,339.864653,0.004890897,0.022392191,0.7528402,0.001229939
36,1419.69,3296.69,3876.5,342.25,,1386.5,1.766242038,,3869.970693,4.929898972,4.946563144,0.016664172,,4.199605096,0.001106074,340.114653,0.004894495,0.022386384,0.751808878,0.001204607
37,1457.56,3296.62,3876.69,342.62,,1424.37,1.814484076,,3870.160693,4.93014101,4.946881453,0.016740443,,4.199515924,0.001084105,340.484653,0.004899819,0.02238746,0.750777557,0.001188698
38,1496.88,3297.69,3875.81,342.62,,1463.69,1.864573248,,3869.280693,4.929019991,4.945608216,0.016588225,,4.200878981,0.001061957,340.484653,0.004899819,0.022382364,0.748778575,0.001166454
39,1537.69,3298.38,3874.69,342.75,,1504.5,1.91656051,,3868.160693,4.927593239,4.945137119,0.017543879,,4.201757962,0.001038726,340.614653,0.00490169,0.022375871,0.746486749,0.001167955
40,1578.19,3299.06,3877.94,343.12,,1545,1.968152866,,3871.410693,4.931733367,4.943303658,0.011570291,,4.202624204,0.001015669,340.984653,0.004907015,0.022394665,0.744322247,0.001015098
41,1618.44,3299.5,3877.5,342.75,,1585.25,2.019426752,,3870.970693,4.931172857,4.94832021,0.017147353,,4.203184713,0.000992617,340.614653,0.00490169,0.022392142,0.749746235,0.001128177
42,1657.19,3299.69,3877.75,342.88,,1624,2.068789809,,3871.220693,4.931491329,4.949109617,0.017618288,,4.203426752,0.00097029,340.744653,0.004903561,0.022393581,0.750459248,0.001122699
43,1692.94,3302,3878.12,341.38,,1659.75,2.11433121,,3871.590693,4.931962666,4.949822629,0.017859963,,4.206369427,0.000950926,339.244653,0.004881975,0.022395821,0.750535642,0.001113693
44,1730.31,3304.5,3877.5,342.88,,1697.12,2.161936306,,3870.970693,4.931172857,4.950064544,0.018891687,,4.20955414,0.000930735,340.744653,0.004903561,0.022392133,0.749733503,0.001120829
45,1769.81,3304.44,3878.94,342.75,,1736.62,2.212254777,,3872.410693,4.933007252,4.950153671,0.017146419,,4.209477707,0.000907829,340.614653,0.00490169,0.02240048,0.744971598,0.001060395
46,1806.94,3302.62,3878.38,342.12,,1773.75,2.25955414,,3871.850693,4.932293876,4.949517052,0.017223176,,4.207159236,0.000885275,339.984653,0.004892624,0.022397278,0.739713131,0.001040602
47,1846.81,3303.25,3878.75,342.5,,1813.62,2.310343949,,3872.220693,4.932765214,4.949517052,0.016751838,,4.207961783,0.000862554,340.364653,0.004898093,0.022399396,0.740273355,0.001013756
48,1889.5,3307.44,3877.5,342.75,,1856.31,2.364726115,,3870.970693,4.931172857,4.951095866,0.019923008,,4.213299363,0.000840261,340.614653,0.00490169,0.022392142,0.740744453,0.001068537
49,1930.75,3307.88,3878.19,342.88,,1897.56,2.417273885,,3871.660693,4.932051838,4.950306459,0.018254621,,4.213859873,0.00081663,340.744653,0.004903561,0.022396129,0.740744453,0.001013747
50,1971.5,3307.62,3877.88,342.38,,1938.31,2.469184713,,3871.350693,4.931656934,4.951184992,0.019528059,,4.213528662,0.000792884,340.244653,0.004896366,0.022394366,0.739955046,0.001024017
51,2012.06,3309.19,3879,342.5,,1978.87,2.520853503,,3872.470693,4.933083685,4.950701162,0.017617477,,4.215528662,0.000770307,340.364653,0.004898093,0.022400844,0.739865919,0.00096457
52,2051.44,3309.81,3878.94,342.38,,2018.25,2.571019108,,3872.410693,4.933007252,4.950382853,0.017375601,,4.216318471,0.000747863,340.244653,0.004896366,0.022400504,0.738516289,0.000941531
53,2088,3317.06,3880.19,343,,2054.81,2.617592357,,3873.660693,4.934599609,4.951898005,0.017298396,,4.22555414,0.000730892,340.864653,0.004905288,0.022407701,0.739000118,0.000927746
54,2125.44,3318.81,3878.94,342.75,,2092.25,2.665286624,,3872.410693,4.933007252,4.953094847,0.020087595,,4.227783439,0.000710226,340.614653,0.00490169,0.02240048,0.740349749,0.000975787
55,2163.19,3317.19,3879.06,342,,2130,2.713375796,,3872.530693,4.933160118,4.953247636,0.020087517,,4.225719745,0.000687429,339.864653,0.004890897,0.022401224,0.728164875,0.000950547
56,2201.5,3317,3879.44,342.75,,2168.31,2.762178344,,3872.910693,4.933644195,4.954049775,0.02040558,,4.225477707,0.000665136,340.614653,0.00490169,0.022403375,0.727299074,0.000940907
57,2241.5,3316.75,3878.19,342.38,,2208.31,2.813133758,,3871.660693,4.932051838,4.956112418,0.02406058,,4.225159236,0.00064183,340.244653,0.004896366,0.022396161,0.729527238,0.001007097
58,2284.25,3317.75,3877.19,342.75,,2251.06,2.867592357,,3870.660693,4.930777953,4.953247636,0.022469683,,4.226433121,0.000617655,340.614653,0.00490169,0.022390347,0.729680027,0.000953794
59,2324.56,3319.19,3877.88,341.62,,2291.37,2.918942675,,3871.350693,4.931656934,4.954520872,0.022863938,,4.228267516,0.000595148,339.484653,0.004885429,0.022394416,0.729603633,0.000946246
60,2363.81,3319.19,3878.12,342.25,,2330.62,2.968942675,,3871.590693,4.931962666,4.957385654,0.025422988,,4.228267516,0.00057242,340.114653,0.004894495,0.022395764,0.731513487,0.0009881
61,2402.81,3320.25,3879.62,341.75,,2369.62,3.018624204,,3873.090693,4.933873494,4.9554758,0.021602305,,4.229617834,0.000550452,339.614653,0.0048873,0.022404483,0.728012087,0.000884724
62,2441.38,3321.75,3878.69,341.62,,2408.19,3.067757962,,3872.160693,4.932688781,4.956112418,0.023423637,,4.231528662,0.000528987,339.484653,0.004885429,0.022399106,0.728725099,0.000910154
63,2477.38,3323.44,3879.38,341.62,,2444.19,3.113617834,,3872.850693,4.933567762,4.956354333,0.022786571,,4.233681529,0.00050912,339.484653,0.004885429,0.022403102,0.726420541,0.000880325
64,2514.94,3323.44,3878.31,342.25,,2481.75,3.161464968,,3871.780693,4.932204704,4.95682543,0.024620726,,4.233681529,0.000487371,340.114653,0.004894495,0.022396865,0.72657333,0.000905538
65,2556.69,3325.56,3878.81,342.75,,2523.5,3.214649682,,3872.280693,4.932841647,4.956112418,0.023270771,,4.236382166,0.000464424,340.614653,0.00490169,0.022399727,0.724026856,0.000857514
66,2595.31,3326.94,3877.75,342.75,,2562.12,3.263847134,,3871.220693,4.931491329,4.957067345,0.025576017,,4.238140127,0.00044286,340.614653,0.00490169,0.022393589,0.722435311,0.000892677
67,2635.88,3327.69,3876.75,342.75,,2602.69,3.315528662,,3870.220693,4.930217443,4.956596248,0.026378804,,4.239095541,0.000419803,340.614653,0.00490169,0.022387799,0.7203854,0.000892983
68,2677.12,3329.06,3875.38,341.75,,2643.93,3.368063694,,3868.850693,4.92847222,4.955717715,0.027245494,,4.240840764,0.000396717,339.614653,0.0048873,0.022379931,0.717826194,0.000894526
69,2717.62,3330.75,3875.06,341.75,,2684.43,3.419656051,,3868.530693,4.928064577,4.954839181,0.026774604,,4.242993631,0.000374244,339.614653,0.0048873,0.022378079,0.71559803,0.000866973
70,2757.06,3331.69,3872.25,342.38,,2723.87,3.469898089,,3865.720693,4.924484959,4.958187793,0.033702834,,4.244191083,0.000351951,340.244653,0.004896366,0.022361766,0.717673406,0.001006241
71,2796.5,3332.88,3876.81,342.38,,2763.31,3.520140127,,3870.280693,4.930293876,4.963038825,0.032744948,,4.245707006,0.000329803,340.244653,0.004896366,0.022388171,0.719264952,0.000970315
72,2834.38,3334.5,3877.75,340.62,,2801.19,3.568394904,,3871.220693,4.931491329,4.96279691,0.031305581,,4.247770701,0.000308807,338.484653,0.004871038,0.022393729,0.719099431,0.000923112
73,2871.12,3335.31,3877.44,342.38,,2837.93,3.615197452,,3870.910693,4.931096424,4.963191613,0.032095189,,4.248802548,0.000288002,340.244653,0.004896366,0.022391818,0.716552958,0.000925039
74,2908.31,3337.81,3876.94,341.38,,2875.12,3.662573248,,3870.410693,4.930459482,4.962644121,0.03218464,,4.251987261,0.000267915,339.244653,0.004881975,0.022388989,0.714566709,0.000912025
75,2949.38,3338.94,3873.44,339.38,,2916.19,3.71489172,,3866.910693,4.926000883,4.960976182,0.034975299,,4.253426752,0.000244789,337.244653,0.004853194,0.022368853,0.711791053,0.000956596
76,2990.69,3341.12,3872.5,341.62,,2957.5,3.767515924,,3865.970693,4.924803431,4.961052576,0.036249145,,4.256203822,0.000222131,339.484653,0.004885429,0.022363264,0.709639283,0.000968282
77,3029.31,3342.56,3870.12,341,,2996.12,3.816713376,,3863.590693,4.921771583,4.962554995,0.040783411,,4.258038217,0.000200602,338.864653,0.004876506,0.022349523,0.707321993,0.00105338
78,3070.94,3345.12,3868.12,341.12,,3037.75,3.869745223,,3861.590693,4.919223813,4.962007503,0.04278369,,4.261299363,0.000177979,338.984653,0.004878233,0.022337934,0.706137883,0.001081377
79,3109.12,3345.88,3865.31,340.25,,3075.93,3.918382166,,3858.780693,4.915644195,4.961841982,0.046197788,,4.262267516,0.000156312,338.114653,0.004865713,0.02232172,0.701910737,0.001140931
80,3148.88,3348.38,3862.62,340.25,,3115.69,3.969031847,,3856.090693,4.912217443,4.96279691,0.050579467,,4.265452229,0.000134737,338.114653,0.004865713,0.022306144,0.701197725,0.00122271
81,3189.31,3350.56,3860.31,339.5,,3156.12,4.020535032,,3853.780693,4.909274768,4.961370885,0.052096117,,4.268229299,0.000112588,337.364653,0.00485492,0.022292817,0.697696324,0.001239922
82,3228.62,3353.06,3856.25,339.62,,3195.43,4.070611465,,3849.720693,4.904102794,4.962478601,0.058375807,,4.271414013,9.12739E-05,337.484653,0.004856647,0.022269301,0.695544554,0.001363473
83,3265.81,3354.81,3850.12,341.5,,3232.62,4.117987261,,3843.590693,4.896293876,4.962962431,0.066668554,,4.273643312,7.07528E-05,339.364653,0.004883702,0.022233683,0.693405517,0.001531348
84,3303.19,3357.12,3841.62,337,,3270,4.165605096,,3835.090693,4.885465851,4.962886036,0.077420185,,4.276585987,5.04459E-05,334.864653,0.004818944,0.022184759,0.690617129,0.001752387
85,3341.81,3360.69,3813.94,333.81,,3308.62,4.214802548,,3807.410693,4.850204704,4.965585298,0.115380593,,4.281133758,3.01506E-05,331.674653,0.004773037,0.022024689,0.688070656,0.002561967
86,3381.94,3380.88,2456.38,201.12,,3348.75,4.265923567,,2449.850693,3.120828908,4.96446485,1.843635941,,4.306853503,1.86045E-05,198.984653,0.002863533,0.01417257,0.663395331,0.026141401
87,3419.25,3411.31,813.25,55.5,,3386.06,4.313452229,,806.720693,1.027669673,4.96661662,3.938946947,,4.345617834,1.46207E-05,53.364653,0.000767956,0.004667735,0.624243307,0.018395088
88,3460,3448.19,167.19,5.38,,3426.81,4.365363057,,160.660693,0.204663303,4.964872285,4.760208982,,4.392598726,1.23798E-05,3.244653,4.66929E-05,0.000930076,0.572358916,0.004434439
89,3499.44,3486.5,30.12,5.62,,3466.25,4.415605096,,23.590693,0.030051838,4.964795891,4.934744053,,4.441401274,1.17255E-05,3.484653,5.01467E-05,0.000136371,0.519366811,0.000679047
90,3539,3530.12,11.12,7.12,,3505.81,4.466,,4.590693,0.005848017,4.96328074,4.957432723,,4.496968153,1.40764E-05,4.984653,7.17327E-05,2.62558E-05,0.467164111,0.000136738
91,3577.25,3571.25,11.06,5.75,,3544.06,4.514726115,,4.530693,0.005771583,4.969086698,4.963315115,,4.549363057,1.57441E-05,3.614653,5.20175E-05,2.5998E-05,0.424115983,0.000135714
92,3617.38,3610.31,12.31,5.38,,3584.19,4.565847134,,5.780693,0.00736394,4.968131771,4.960767831,,4.599121019,1.51245E-05,3.244653,4.66929E-05,3.32602E-05,0.373097394,0.000170639
93,3655.44,3646.56,12.25,4.75,,3622.25,4.61433121,,5.720693,0.007287507,4.969163093,4.961875586,,4.645299363,1.40764E-05,2.614653,3.76267E-05,3.2954E-05,0.323046464,0.000168061
94,3694.88,3684.81,12.38,5,,3661.69,4.664573248,,5.850693,0.007453112,4.970359935,4.962906823,,4.694025478,1.33874E-05,2.864653,4.12244E-05,3.36904E-05,0.275860317,0.000170895
95,3733.31,3724.69,13.69,6.25,,3700.12,4.713528662,,7.160693,0.009121902,4.969328613,4.960206712,,4.744828025,1.4227E-05,4.114653,5.92128E-05,4.1194E-05,0.225885782,0.000207545
96,3777.5,3764.31,13.44,6,,3744.31,4.769821656,,6.910693,0.008803431,4.97011802,4.96131459,,4.795299363,1.15808E-05,3.864653,5.56151E-05,3.97628E-05,0.175351022,0.000199306
97,3814.06,3803.62,13.69,6.12,,3780.87,4.816394904,,7.160693,0.009121902,4.97060185,4.961479948,,4.845375796,1.31731E-05,3.984653,5.7342E-05,4.12025E-05,0.125300093,0.000206076
98,3853.44,3842.44,13.94,6.25,,3820.25,4.86656051,,7.410693,0.009440373,4.969010304,4.959569931,,4.894828025,1.28489E-05,4.114653,5.92128E-05,4.26416E-05,0.075478346,0.000212454
99,3890,3880.31,13.19,5.5,,3856.81,4.913133758,,6.660693,0.008484959,4.971875087,4.963390127,,4.943070064,1.36074E-05,3.364653,4.84198E-05,3.83479E-05,0.027655581,0.000190712
100,3909.56,3896.69,14.56,4.81,,3876.37,4.938050955,,8.030693,0.010230182,4.971391257,4.961161075,,4.963936306,1.17661E-05,2.674653,3.84902E-05,4.63259E-05,0.005373941,0.000229893
