refV = 3924
0,  10.12,  9.38,  3897.19,  6.62 
1,  47.38,  46.06,  3896.75,  5.81 
2,  85.25,  85.94,  3896.88,  7.88 
3,  124.06,  122.12,  3897.56,  5.81 
4,  162.00,  163.56,  3897.94,  6.25 
5,  201.00,  202.25,  3899.06,  6.56 
6,  239.94,  241.19,  3898.12,  7.25 
7,  281.69,  279.44,  3898.50,  7.19 
8,  321.25,  318.88,  3898.38,  6.75 
9,  359.94,  358.56,  3899.88,  6.69 
10,  400.81,  399.81,  3900.44,  7.88 
11,  440.12,  443.12,  3899.56,  7.69 
12,  478.94,  479.44,  3858.62,  41.12 
13,  517.69,  511.56,  3660.12,  211.94 
14,  555.75,  537.81,  3210.94,  619.69 
15,  594.00,  558.12,  2566.94,  1196.81 
16,  633.75,  577.06,  1828.06,  1843.38 
17,  673.19,  593.50,  1068.81,  2489.25 
18,  711.94,  605.88,  541.19,  2959.50 
19,  753.56,  615.25,  345.25,  3140.25 
20,  793.38,  620.25,  227.56,  3247.38 
21,  831.94,  622.50,  188.94,  3287.50 
22,  870.94,  624.44,  172.19,  3305.88 
23,  907.88,  625.12,  160.31,  3317.94 
24,  943.88,  625.44,  153.06,  3326.81 
25,  981.88,  627.00,  147.25,  3336.56 
26,  1023.19,  628.00,  142.50,  3344.38 
27,  1065.38,  628.31,  135.44,  3350.81 
28,  1106.62,  630.19,  129.25,  3358.44 
29,  1146.00,  629.50,  126.12,  3364.56 
30,  1186.50,  630.75,  132.38,  3371.44 
31,  1225.50,  632.31,  129.25,  3375.94 
32,  1263.62,  632.00,  126.62,  3381.00 
33,  1300.69,  632.19,  124.69,  3386.81 
34,  1336.62,  632.38,  121.94,  3391.44 
35,  1375.25,  633.50,  120.19,  3397.44 
36,  1421.06,  634.19,  118.75,  3402.31 
37,  1460.69,  634.31,  116.12,  3407.62 
38,  1497.62,  633.56,  114.00,  3410.94 
39,  1538.94,  634.94,  111.25,  3415.38 
40,  1579.31,  635.25,  112.75,  3420.62 
41,  1617.38,  634.94,  112.19,  3425.19 
42,  1657.19,  635.38,  111.19,  3429.12 
43,  1692.88,  636.62,  111.19,  3432.88 
44,  1730.00,  640.31,  110.31,  3437.69 
45,  1768.44,  638.88,  109.56,  3443.06 
46,  1807.38,  636.75,  108.50,  3446.94 
47,  1847.19,  638.50,  107.12,  3451.12 
48,  1889.56,  641.25,  107.81,  3455.31 
49,  1931.31,  640.31,  105.69,  3458.69 
50,  1971.12,  640.25,  105.12,  3463.56 
51,  2011.69,  640.69,  105.19,  3467.81 
52,  2048.88,  640.19,  103.62,  3471.44 
53,  2086.56,  643.69,  104.62,  3474.81 
54,  2123.25,  649.00,  104.00,  3479.44 
55,  2161.44,  646.25,  103.44,  3483.38 
56,  2200.62,  644.75,  103.12,  3486.62 
57,  2241.19,  645.12,  102.31,  3492.12 
58,  2281.31,  645.38,  101.62,  3494.50 
59,  2323.88,  644.38,  100.06,  3499.12 
60,  2362.81,  645.00,  101.12,  3504.00 
61,  2401.31,  646.00,  102.38,  3507.06 
62,  2438.75,  645.69,  101.88,  3511.00 
63,  2475.12,  645.69,  100.75,  3514.94 
64,  2513.69,  646.19,  101.50,  3519.12 
65,  2554.38,  646.56,  99.56,  3523.69 
66,  2592.50,  646.62,  99.25,  3527.00 
67,  2632.19,  647.31,  98.56,  3530.19 
68,  2674.62,  647.62,  97.94,  3534.88 
69,  2715.00,  647.62,  96.00,  3539.31 
70,  2754.44,  648.12,  95.06,  3541.94 
71,  2792.50,  648.69,  99.50,  3546.81 
72,  2830.81,  648.31,  101.31,  3549.50 
73,  2868.81,  648.94,  102.50,  3553.44 
74,  2906.25,  649.50,  99.88,  3558.38 
75,  2945.12,  649.06,  98.25,  3560.06 
76,  2985.50,  650.62,  98.38,  3565.25 
77,  3025.62,  650.50,  97.25,  3568.88 
78,  3065.88,  650.44,  96.19,  3571.81 
79,  3106.81,  651.12,  95.56,  3576.00 
80,  3145.69,  651.31,  95.19,  3579.25 
81,  3184.31,  651.50,  95.12,  3583.00 
82,  3224.12,  652.38,  95.38,  3586.94 
83,  3262.06,  651.88,  96.00,  3593.38 
84,  3299.25,  652.19,  96.12,  3594.56 
85,  3337.69,  651.44,  96.00,  3598.94 
86,  3376.81,  652.19,  95.19,  3602.31 
87,  3417.25,  651.12,  94.94,  3605.94 
88,  3457.50,  650.56,  93.88,  3609.62 
89,  3497.19,  650.06,  92.38,  3613.38 
90,  3536.25,  653.94,  91.31,  3617.62 
91,  3574.75,  659.06,  90.69,  3619.69 
92,  3614.50,  656.88,  94.06,  3624.19 
93,  3653.06,  657.12,  95.38,  3627.69 
94,  3692.50,  656.50,  94.69,  3631.38 
95,  3732.31,  656.50,  94.00,  3635.62 
96,  3770.44,  657.50,  94.88,  3639.50 
97,  3811.50,  657.00,  93.81,  3643.50 
98,  3850.56,  658.94,  94.50,  3646.75 
99,  3874.31,  658.06,  93.81,  3648.75 
100,  3876.62,  652.94,  94.44,  3648.31 
