refV = 3923
0,  12.38,  11.69,  3899.75,  5.75 
1,  48.31,  46.31,  3898.06,  7.00 
2,  85.44,  87.00,  3897.44,  8.56 
3,  125.19,  121.94,  3898.25,  7.19 
4,  162.38,  163.75,  3899.38,  7.19 
5,  201.62,  202.62,  3898.94,  6.50 
6,  241.44,  242.00,  3898.94,  7.25 
7,  281.31,  281.12,  3898.50,  7.00 
8,  321.38,  319.69,  3899.25,  7.56 
9,  360.75,  359.38,  3899.44,  7.69 
10,  401.44,  399.62,  3900.44,  7.06 
11,  440.19,  443.00,  3900.75,  8.31 
12,  479.25,  479.69,  3899.69,  42.12 
13,  518.19,  512.25,  3899.12,  214.62 
14,  556.44,  537.62,  3884.31,  624.44 
15,  594.19,  557.94,  3853.19,  1202.69 
16,  633.62,  575.50,  3820.38,  1851.25 
17,  673.00,  592.69,  3783.69,  2499.44 
18,  713.56,  606.19,  3760.62,  2965.75 
19,  754.12,  614.00,  3751.00,  3142.88 
20,  794.12,  620.44,  3745.00,  3250.69 
21,  834.69,  622.94,  3743.38,  3290.06 
22,  872.06,  624.56,  3742.62,  3307.88 
23,  909.31,  625.69,  3741.44,  3320.12 
24,  946.88,  626.25,  3743.69,  3332.06 
25,  983.31,  627.62,  3742.62,  3339.94 
26,  1025.56,  628.31,  3740.94,  3346.56 
27,  1067.75,  629.81,  3739.94,  3354.38 
28,  1107.12,  629.50,  3736.56,  3362.50 
29,  1148.50,  630.56,  3738.38,  3368.12 
30,  1187.94,  631.38,  3745.12,  3373.94 
31,  1227.19,  632.25,  3744.19,  3379.19 
32,  1266.06,  632.62,  3742.62,  3383.94 
33,  1302.25,  632.62,  3743.44,  3390.00 
34,  1339.38,  632.94,  3742.75,  3395.38 
35,  1377.44,  634.38,  3742.31,  3399.94 
36,  1423.88,  635.50,  3742.50,  3405.06 
37,  1462.44,  634.88,  3741.69,  3409.44 
38,  1500.50,  635.62,  3741.31,  3414.69 
39,  1541.00,  636.44,  3739.62,  3419.44 
40,  1580.75,  636.69,  3742.75,  3423.62 
41,  1621.44,  637.31,  3742.81,  3429.75 
42,  1659.50,  636.56,  3743.25,  3433.12 
43,  1694.81,  637.50,  3742.94,  3436.56 
44,  1732.50,  641.50,  3744.00,  3441.94 
45,  1771.38,  639.75,  3743.88,  3446.06 
46,  1808.62,  637.94,  3742.56,  3449.75 
47,  1850.19,  639.69,  3742.31,  3453.56 
48,  1891.94,  640.81,  3743.44,  3458.81 
49,  1933.88,  642.00,  3743.81,  3463.25 
50,  1973.88,  641.62,  3743.19,  3466.75 
51,  2013.38,  642.19,  3742.56,  3470.56 
52,  2052.56,  641.75,  3743.81,  3474.69 
53,  2089.06,  644.88,  3743.81,  3478.12 
54,  2125.31,  650.31,  3743.00,  3482.62 
55,  2163.31,  647.38,  3743.25,  3486.06 
56,  2202.69,  646.38,  3743.81,  3491.81 
57,  2244.19,  646.56,  3743.50,  3495.31 
58,  2285.00,  646.75,  3743.19,  3499.62 
59,  2326.12,  645.94,  3743.06,  3502.25 
60,  2366.38,  646.31,  3743.94,  3507.81 
61,  2403.50,  646.31,  3744.81,  3510.31 
62,  2441.81,  647.12,  3745.06,  3514.19 
63,  2478.25,  648.00,  3745.00,  3517.94 
64,  2516.31,  647.81,  3744.94,  3521.81 
65,  2556.56,  648.00,  3743.81,  3525.44 
66,  2594.94,  648.25,  3744.25,  3530.19 
67,  2635.75,  648.50,  3743.00,  3533.88 
68,  2677.88,  649.19,  3742.88,  3538.31 
69,  2717.75,  648.88,  3741.38,  3540.81 
70,  2758.50,  650.31,  3742.31,  3546.62 
71,  2796.12,  650.50,  3745.56,  3548.50 
72,  2834.31,  650.62,  3748.69,  3552.44 
73,  2870.81,  650.50,  3749.50,  3557.56 
74,  2908.94,  650.94,  3747.69,  3560.88 
75,  2949.81,  651.50,  3746.75,  3564.19 
76,  2988.50,  651.31,  3746.25,  3568.62 
77,  3028.19,  651.44,  3745.56,  3572.06 
78,  3068.50,  652.19,  3745.12,  3576.94 
79,  3110.19,  652.56,  3745.25,  3578.25 
80,  3149.56,  653.38,  3745.44,  3584.19 
81,  3187.62,  653.56,  3744.81,  3586.50 
82,  3227.19,  653.94,  3745.19,  3591.12 
83,  3264.50,  653.75,  3744.19,  3595.44 
84,  3302.19,  654.25,  3745.25,  3598.25 
85,  3342.31,  654.38,  3746.94,  3602.25 
86,  3380.88,  654.00,  3745.06,  3605.31 
87,  3420.50,  653.19,  3745.38,  3609.56 
88,  3461.25,  652.81,  3744.56,  3613.44 
89,  3500.88,  651.81,  3743.62,  3616.38 
90,  3540.62,  657.62,  3743.38,  3621.00 
91,  3578.94,  661.50,  3741.88,  3624.12 
92,  3617.94,  659.00,  3745.62,  3627.81 
93,  3656.50,  659.00,  3745.06,  3630.62 
94,  3696.94,  659.00,  3746.69,  3634.81 
95,  3736.75,  659.25,  3747.81,  3639.44 
96,  3773.81,  659.50,  3746.38,  3643.00 
97,  3814.06,  659.38,  3747.25,  3646.56 
98,  3854.06,  660.00,  3746.75,  3649.94 
99,  3878.62,  659.50,  3744.69,  3651.25 
100,  3882.00,  655.69,  3747.00,  3651.50 
