refV = 3926
0,  38.75,  3090.31,  3730.12,  3330.06 
1,  50.31,  3089.31,  3729.19,  3330.19 
2,  86.56,  3091.62,  3728.56,  3331.50 
3,  126.00,  3090.19,  3731.56,  3330.44 
4,  163.56,  3090.81,  3730.56,  3329.75 
5,  201.62,  3091.62,  3731.88,  3330.88 
6,  243.94,  3090.00,  3731.31,  3329.69 
7,  284.00,  3092.56,  3731.94,  3330.25 
8,  323.12,  3093.25,  3733.00,  3331.00 
9,  362.94,  3094.12,  3732.44,  3328.75 
10,  402.88,  3095.44,  3733.56,  3329.75 
11,  441.25,  3095.12,  3735.19,  3329.69 
12,  480.44,  3099.69,  3734.56,  3329.19 
13,  519.00,  3100.56,  3734.94,  3329.50 
14,  557.00,  3099.88,  3734.56,  3329.06 
15,  595.81,  3099.69,  3734.81,  3329.19 
16,  635.12,  3099.12,  3735.12,  3328.38 
17,  674.94,  3098.75,  3734.19,  3329.25 
18,  715.44,  3099.50,  3734.44,  3328.69 
19,  755.25,  3100.50,  3735.31,  3328.56 
20,  794.62,  3101.69,  3735.06,  3329.12 
21,  834.50,  3101.38,  3735.25,  3328.06 
22,  872.06,  3102.38,  3736.44,  3328.56 
23,  909.38,  3101.56,  3735.00,  3326.62 
24,  946.25,  3102.56,  3736.75,  3327.38 
25,  982.00,  3103.81,  3736.19,  3326.12 
26,  1024.38,  3103.75,  3736.69,  3326.50 
27,  1069.19,  3104.56,  3736.06,  3326.69 
28,  1109.25,  3104.75,  3733.88,  3326.44 
29,  1149.69,  3105.56,  3732.94,  3325.38 
30,  1189.44,  3107.25,  3735.50,  3325.88 
31,  1227.06,  3106.81,  3739.44,  3325.25 
32,  1265.81,  3106.12,  3739.06,  3323.25 
33,  1303.31,  3108.56,  3740.69,  3324.56 
34,  1339.75,  3108.19,  3739.88,  3323.56 
35,  1377.88,  3109.06,  3740.06,  3323.31 
36,  1416.31,  3109.94,  3740.69,  3324.44 
37,  1463.12,  3109.50,  3739.56,  3322.50 
38,  1503.38,  3109.69,  3739.50,  3321.75 
39,  1541.81,  3109.94,  3737.06,  3320.88 
40,  1582.81,  3111.31,  3737.31,  3320.50 
41,  1621.75,  3111.50,  3740.94,  3321.12 
42,  1658.94,  3111.38,  3742.12,  3320.25 
43,  1696.69,  3111.56,  3742.69,  3319.81 
44,  1733.00,  3113.94,  3743.25,  3318.75 
45,  1771.62,  3116.62,  3744.62,  3318.81 
46,  1809.31,  3118.69,  3743.06,  3317.50 
47,  1851.81,  3120.25,  3744.38,  3317.25 
48,  1892.50,  3118.56,  3743.94,  3315.88 
49,  1935.56,  3119.25,  3743.50,  3315.56 
50,  1975.69,  3118.69,  3744.12,  3314.88 
51,  2013.50,  3119.25,  3743.94,  3313.50 
52,  2053.44,  3119.38,  3744.75,  3312.75 
53,  2089.56,  3119.12,  3745.56,  3311.31 
54,  2126.06,  3120.88,  3744.31,  3308.25 
55,  2165.50,  3128.81,  3747.00,  3309.75 
56,  2202.12,  3128.69,  3745.44,  3307.06 
57,  2245.06,  3129.31,  3747.69,  3305.81 
58,  2285.88,  3127.06,  3746.56,  3303.56 
59,  2326.75,  3127.94,  3748.75,  3303.06 
60,  2366.25,  3127.44,  3749.44,  3301.25 
61,  2403.81,  3129.44,  3749.69,  3299.25 
62,  2439.94,  3128.75,  3748.88,  3295.62 
63,  2478.00,  3130.19,  3749.50,  3293.56 
64,  2519.25,  3132.00,  3750.38,  3290.44 
65,  2557.94,  3133.38,  3749.75,  3287.75 
66,  2595.50,  3133.88,  3749.50,  3282.44 
67,  2637.75,  3135.88,  3750.94,  3277.81 
68,  2678.56,  3137.19,  3749.25,  3270.75 
69,  2718.94,  3139.00,  3750.31,  3262.38 
70,  2758.88,  3141.62,  3753.12,  3252.38 
71,  2795.31,  3144.38,  3756.12,  3237.69 
72,  2834.25,  3147.50,  3758.06,  3221.62 
73,  2871.88,  3151.62,  3759.38,  3197.44 
74,  2911.81,  3155.50,  3759.88,  3167.38 
75,  2952.00,  3161.69,  3761.94,  3126.94 
76,  2990.00,  3168.50,  3765.44,  3050.62 
77,  3029.69,  3180.44,  3773.38,  2880.25 
78,  3071.31,  3198.12,  3786.44,  2641.81 
79,  3111.56,  3217.69,  3802.38,  2369.00 
80,  3151.81,  3237.69,  3817.12,  2073.62 
81,  3189.62,  3259.38,  3834.00,  1770.75 
82,  3228.50,  3279.19,  3849.00,  1452.62 
83,  3266.88,  3303.38,  3866.81,  1123.44 
84,  3304.38,  3326.12,  3883.25,  800.19 
85,  3343.06,  3352.31,  3899.25,  493.75 
86,  3380.75,  3380.19,  3908.38,  228.25 
87,  3422.88,  3413.12,  3909.81,  63.00 
88,  3462.50,  3450.62,  3907.75,  5.25 
89,  3502.69,  3493.44,  3907.62,  5.25 
90,  3541.94,  3533.25,  3906.06,  4.94 
91,  3580.25,  3571.56,  3910.62,  5.94 
92,  3619.31,  3612.62,  3910.69,  5.19 
93,  3657.88,  3651.44,  3911.38,  4.94 
94,  3697.44,  3689.69,  3911.56,  5.38 
95,  3739.69,  3728.88,  3912.19,  6.00 
96,  3777.38,  3767.81,  3911.94,  5.88 
97,  3817.69,  3807.50,  3912.75,  6.12 
98,  3856.62,  3846.19,  3912.75,  4.94 
99,  3894.69,  3884.19,  3911.81,  6.00 
100,  3913.62,  3902.88,  3914.31,  7.69 
